Sniff and Normalize Place Names in R
…
x <- distinct(df.src, country)

pull(x, country) %>%
  lapply(process_regx_list, regx_list = regx_list) %>%
  bind_rows() %>%
  bind_cols(x, .) %>%
  arrange(country)

## # A tibble: 163 x 4
##    country                cn    ac1   ac2          
##    <chr>                  <chr> <chr> <chr>        
##  1 Argentina              AR    <NA>  <NA>         
##  2 Argentina: Cordoba     AR    AR.05 <NA>         
##  3 Australia              AU    <NA>  <NA>         
##  4 Bangladesh             BD    <NA>  <NA>         
##  5 Bangladesh: Dhaka      BD    BD.81 <NA>         
##  6 Brazil                 BR    <NA>  <NA>         
##  7 Brazil: Uberlandia, MG BR    <NA>  BR.15.3170206
##  8 Cameroon               CM    <NA>  <NA>         
##  9 Canada                 CA    <NA>  <NA>         
## 10 China                  CN    <NA>  <NA>         
## # … with 153 more rows
…
